100 : 
 iter = 93
 time in ns = 440213

1090 : 
 iter = 1229
 time in ns = 249904

2080 : 
 iter = 2598
 time in ns = 440399

3070 : 
 iter = 4351
 time in ns = 2490886

4060 : 
 iter = 6294
 time in ns = 887793

5050 : 
 iter = 8579
 time in ns = 1280721

6040 : 
 iter = 9381
 time in ns = 1194683

7030 : 
 iter = 12764
 time in ns = 1609994

8020 : 
 iter = 23832
 time in ns = 3015784

9010 : 
 iter = 23062
 time in ns = 3098464

10000 : 
 iter = 24382
 time in ns = 2909369

