100 : 
 iter = 96
 time in ns = 158551

1090 : 
 iter = 1010
 time in ns = 45840

2080 : 
 iter = 3048
 time in ns = 129172

3070 : 
 iter = 7750
 time in ns = 282874

4060 : 
 iter = 5858
 time in ns = 218754

5050 : 
 iter = 9348
 time in ns = 296770

6040 : 
 iter = 11383
 time in ns = 347833

7030 : 
 iter = 15249
 time in ns = 446415

8020 : 
 iter = 18317
 time in ns = 571670

9010 : 
 iter = 16408
 time in ns = 504892

10000 : 
 iter = 29601
 time in ns = 834539

